{
  "Rows": {
    "Count": 25
  },
  "Cols": {
    "Count": 18
  },
  "Values": {
    "2,4": "アクセス許可の問題",
    "5,1": "このページを表示するアクセス許可がありません。",
    "7,1": "可能性のある原因: ",
    "9,1": "ログイン中のユーザーは、要求に必要なアクセス権を持っていません。",
    "12,1": "解決方法：",
    "14,1": 1,
    "14,2": "一旦ログオフし、異なるアカウントでログインする",
    "16,1": 2,
    "16,2": "Webブラウザーの戻るボタンをクリックして前ページに戻り、異なるリンクを試す",
    "19,1": 3,
    "19,2": "管理者に問い合わせる"
  },
  "AttachInfos": {
    "14,2": {
      "CellType": {
        "$type": "Forguncy.HyperlinkCellType, Forguncy",
        "Text": "一旦ログオフし、異なるアカウントでログインする",
        "ForguncyAttribute": "401Login"
      }
    }
  },
  "StyleDatas": {
    "Styles": [
      {
        "BorderBottom": null
      },
      {
        "FontSize": 21.333333969116211,
        "Foreground": 0,
        "Formatter": 1,
        "TextIndent": 0,
        "HorizontalAlignment": 2,
        "VerticalAlignment": 3,
        "BorderBottom": null,
        "BorderTop": null,
        "BorderLeft": null,
        "BorderRight": null
      },
      {
        "BorderBottom": 0
      },
      {
        "BorderTop": null
      },
      {
        "Foreground": 5,
        "Formatter": 1,
        "TextIndent": 0,
        "HorizontalAlignment": 6,
        "BorderBottom": null,
        "BorderTop": null,
        "BorderLeft": null,
        "BorderRight": null
      },
      {
        "FontSize": 14.666666984558105,
        "FontWeight": 7,
        "Foreground": 8,
        "Formatter": 1,
        "BorderBottom": null,
        "BorderTop": null,
        "BorderLeft": null,
        "BorderRight": null
      },
      {
        "Foreground": 5,
        "Formatter": 1,
        "WordWrap": true,
        "BorderBottom": null,
        "BorderTop": null,
        "BorderLeft": null,
        "BorderRight": null
      },
      {
        "FontSize": 14.666666984558105,
        "Foreground": 5,
        "Formatter": 1,
        "HorizontalAlignment": 6,
        "VerticalAlignment": 9
      },
      {
        "Foreground": 10,
        "Formatter": 1,
        "VerticalAlignment": 9,
        "Underline": true,
        "BorderBottom": null,
        "BorderTop": null,
        "BorderLeft": null,
        "BorderRight": null
      },
      {
        "Foreground": 5,
        "Formatter": 1,
        "VerticalAlignment": 9,
        "WordWrap": true,
        "BorderBottom": null,
        "BorderTop": null,
        "BorderLeft": null,
        "BorderRight": null
      },
      {
        "Foreground": 5,
        "Formatter": 1,
        "VerticalAlignment": 9
      },
      {
        "Formatter": 1
      }
    ],
    "Types": {
      "Strs": [
        "#FF09519D",
        "[AUTO]General",
        "Center",
        "Bottom",
        "#FFA9BCD1",
        "#FF3F3F3F",
        "Left",
        "Bold",
        "#FF7F7F7F",
        "Top",
        "#FF538BD5",
        "Meiryo UI",
        "#FF000000"
      ],
      "Borders": [
        {
          "Color": 4
        }
      ]
    },
    "CellStyles": {
      "1,5": 0,
      "1,6": 0,
      "1,7": 0,
      "1,8": 0,
      "1,9": 0,
      "1,10": 0,
      "1,11": 0,
      "1,12": 0,
      "2,4": 1,
      "3,1": 2,
      "3,2": 2,
      "3,3": 2,
      "3,14": 2,
      "3,15": 2,
      "3,16": 2,
      "4,1": 3,
      "4,2": 3,
      "4,3": 3,
      "4,4": 3,
      "4,5": 3,
      "4,6": 3,
      "4,7": 3,
      "4,8": 3,
      "4,9": 3,
      "4,10": 3,
      "4,11": 3,
      "4,12": 3,
      "4,13": 3,
      "4,14": 3,
      "4,15": 3,
      "4,16": 3,
      "5,1": 4,
      "7,1": 5,
      "9,1": 6,
      "12,1": 5,
      "14,1": 7,
      "14,2": 8,
      "16,1": 7,
      "16,2": 9,
      "19,1": 7,
      "19,2": 10,
      "22,13": 11
    },
    "SheetStyle": {
      "FontFamily": 11,
      "FontSize": 13.333333015441895,
      "Foreground": 12
    }
  },
  "Spans": [
    "2,4,2,10",
    "5,1,1,16",
    "7,1,2,16",
    "9,1,2,16",
    "12,1,2,16",
    "16,2,2,15"
  ],
  "PageInfo": {
    "$type": "Forguncy.Model.Pages.NormalPage, Forguncy",
    "Title": "401ページ",
    "IsBuiltInPage": true,
    "IsMobilePage": true,
    "Name": "FGC_401ページ_モバイル",
    "Weight": 0
  },
  "PrintInfo": {
    "Margin": {},
    "PaperSize": {}
  }
}