{
  "Rows": {
    "InLogicalVisibleIndexes": [
      22,
      23,
      24
    ],
    "Count": 25
  },
  "Cols": {
    "Sizes": {
      "0": 18.0,
      "17": 22.0
    },
    "Count": 22
  },
  "Values": {
    "1,1": "弁当注文システム(モバイル)の使い方",
    "3,1": "ログイン画面に表示されるユーザーは全員弁当の注文が",
    "4,1": "可能です。",
    "6,1": "弁当の注文：",
    "7,2": "メニューの［弁当注文］から［注文する］を選択",
    "8,3": "弁当を注文したい日を選択",
    "9,3": "注文する弁当を選択",
    "10,3": "［注文を確定する］ボタンで注文します",
    "12,1": "弁当した弁当のキャンセル：",
    "13,2": "メニューの［弁当注文］から［注文履歴］を選択",
    "14,3": "キャンセルする日の［削除］ボタンから",
    "15,3": "キャンセルします",
    "17,1": "※注文済みの弁当を変更する場合は、注文を削除して",
    "18,2": "から再注文してください。"
  },
  "AttachInfos": {
    "19,0": {
      "CellType": {
        "$type": "Forguncy.CustomMenu.ForguncyMobileMenuCellType, Forguncy.CustomMenu",
        "Items": [
          {
            "Text": "トップ",
            "CommandList": [
              {
                "$type": "Forguncy.Model.NavigateCommand, Forguncy",
                "PageName": "HomePage_mobile",
                "PassValues": []
              }
            ],
            "CanVisitRoleList": [
              "FGC_Anonymous"
            ]
          },
          {
            "Text": "弁当注文",
            "CanVisitRoleList": [
              "FGC_Anonymous"
            ],
            "SubItems": [
              {
                "Text": "注文する",
                "CommandList": [
                  {
                    "$type": "Forguncy.Model.NavigateCommand, Forguncy",
                    "PageName": "BentoOrder_mobile",
                    "PassValues": []
                  }
                ],
                "CanVisitRoleList": [
                  "FGC_Anonymous"
                ]
              },
              {
                "Text": "注文履歴",
                "CommandList": [
                  {
                    "$type": "Forguncy.Model.NavigateCommand, Forguncy",
                    "PageName": "MyBentoList_mobile",
                    "PassValues": []
                  }
                ],
                "CanVisitRoleList": [
                  "FGC_Anonymous"
                ]
              }
            ]
          },
          {
            "Value": "ヘルプ",
            "Text": "ヘルプ",
            "CommandList": [
              {
                "$type": "Forguncy.Model.NavigateCommand, Forguncy",
                "PageName": "Help_mobile",
                "PassValues": []
              }
            ],
            "CanVisitRoleList": [
              "FGC_Anonymous"
            ]
          }
        ],
        "MenuLevelsStyle": [
          {
            "BackColor": "#f5f5f5",
            "ForeColor": "#333333",
            "FontSize": 16.0,
            "Height": 32.0
          },
          {
            "BackColor": "#fff",
            "ForeColor": "#333333",
            "FontSize": 16.0,
            "Height": 32.0
          }
        ]
      }
    },
    "23,1": {
      "CellType": {
        "$type": "Forguncy.CurrentUserCellType, Forguncy",
        "NavigateToHomePageWhenLogout": true,
        "CellCustomValue": "%CurrentUser%"
      }
    }
  },
  "StyleDatas": {
    "Styles": [
      {
        "BorderBottom": null,
        "BorderTop": null,
        "BorderLeft": null,
        "BorderRight": null
      },
      {
        "Formatter": 0,
        "TextIndent": 0,
        "HorizontalAlignment": 1,
        "BorderBottom": null,
        "BorderTop": null,
        "BorderLeft": null,
        "BorderRight": null
      },
      {
        "FontFamily": 2,
        "FontWeight": 3,
        "Formatter": 4,
        "Underline": false
      },
      {
        "FontFamily": 2,
        "Underline": true
      },
      {
        "FontFamily": 2
      },
      {
        "FontFamily": 2,
        "Formatter": 4
      },
      {
        "FontFamily": 2,
        "BorderBottom": null
      },
      {
        "Background": null,
        "FontFamily": 2,
        "FontSize": 13.333333015441895,
        "Formatter": 4
      },
      {
        "FontFamily": 2,
        "BorderBottom": null,
        "BorderTop": null,
        "BorderLeft": null,
        "BorderRight": null
      },
      {
        "FontFamily": 2,
        "Formatter": 4,
        "BorderBottom": null,
        "BorderTop": null,
        "BorderLeft": null,
        "BorderRight": null
      },
      {
        "Background": null,
        "FontFamily": 2,
        "FontSize": 13.333333015441895
      },
      {
        "Background": null,
        "FontFamily": 2,
        "FontSize": 13.333333015441895,
        "Foreground": 5,
        "BorderBottom": null,
        "BorderTop": null,
        "BorderLeft": null,
        "BorderRight": null
      },
      {
        "Background": null,
        "FontFamily": 2,
        "FontSize": 13.333333015441895,
        "Formatter": 4,
        "BorderBottom": null,
        "BorderTop": null,
        "BorderLeft": null,
        "BorderRight": null
      },
      {
        "FontFamily": 2,
        "FontSize": 13.333333015441895,
        "Foreground": 6,
        "Formatter": 4,
        "BorderBottom": null,
        "BorderTop": null,
        "BorderLeft": null,
        "BorderRight": null
      },
      {
        "FontFamily": 2,
        "FontSize": 13.333333015441895,
        "Foreground": 5,
        "BorderBottom": null,
        "BorderTop": null,
        "BorderLeft": null,
        "BorderRight": null
      },
      {
        "FontFamily": 2,
        "FontSize": 13.333333015441895,
        "BorderBottom": null,
        "BorderTop": null,
        "BorderLeft": null,
        "BorderRight": null
      },
      {
        "Formatter": 4
      },
      {
        "Background": null
      }
    ],
    "Types": {
      "Strs": [
        "yyyy\"年\"m\"月\"d\"日\";@",
        "Center",
        "メイリオ",
        "Bold",
        "[AUTO]General",
        "#FF585858",
        "#FF000000"
      ]
    },
    "CellStyles": {
      "0,0": 0,
      "0,1": 1,
      "0,2": 1,
      "0,3": 1,
      "0,4": 1,
      "0,5": 1,
      "0,6": 1,
      "0,7": 1,
      "0,8": 1,
      "0,9": 1,
      "0,10": 1,
      "0,11": 1,
      "0,12": 1,
      "0,13": 1,
      "0,14": 1,
      "0,15": 1,
      "0,16": 0,
      "0,17": 0,
      "1,0": 0,
      "1,1": 2,
      "1,2": 3,
      "1,3": 3,
      "1,4": 3,
      "1,5": 3,
      "1,6": 3,
      "1,7": 3,
      "1,8": 3,
      "1,9": 3,
      "1,10": 3,
      "1,11": 3,
      "1,12": 3,
      "1,13": 4,
      "1,14": 4,
      "1,15": 4,
      "1,16": 4,
      "1,17": 4,
      "1,18": 4,
      "1,19": 4,
      "1,20": 4,
      "1,21": 4,
      "2,0": 0,
      "2,1": 5,
      "2,2": 4,
      "2,3": 4,
      "2,4": 4,
      "2,5": 4,
      "2,6": 4,
      "2,7": 4,
      "2,8": 4,
      "2,9": 4,
      "2,10": 4,
      "2,11": 4,
      "2,12": 4,
      "2,13": 4,
      "2,14": 4,
      "2,15": 4,
      "2,16": 4,
      "2,17": 4,
      "2,18": 4,
      "2,19": 4,
      "2,20": 4,
      "2,21": 4,
      "3,0": 0,
      "3,1": 5,
      "3,2": 6,
      "3,3": 6,
      "3,4": 6,
      "3,5": 6,
      "3,6": 6,
      "3,7": 6,
      "3,8": 6,
      "3,9": 6,
      "3,10": 6,
      "3,11": 6,
      "3,12": 6,
      "3,13": 6,
      "3,14": 6,
      "3,15": 4,
      "3,16": 4,
      "3,17": 4,
      "3,18": 4,
      "3,19": 4,
      "3,20": 4,
      "3,21": 4,
      "4,0": 0,
      "4,1": 7,
      "4,2": 8,
      "4,3": 8,
      "4,4": 8,
      "4,5": 8,
      "4,6": 8,
      "4,7": 8,
      "4,8": 8,
      "4,9": 8,
      "4,10": 8,
      "4,11": 8,
      "4,12": 8,
      "4,13": 8,
      "4,14": 8,
      "4,15": 8,
      "4,16": 8,
      "4,17": 8,
      "4,18": 8,
      "4,19": 8,
      "4,20": 8,
      "4,21": 8,
      "5,0": 0,
      "5,1": 9,
      "5,2": 9,
      "5,3": 8,
      "5,4": 8,
      "5,5": 8,
      "5,6": 8,
      "5,7": 8,
      "5,8": 8,
      "5,9": 8,
      "5,10": 8,
      "5,11": 8,
      "5,12": 8,
      "5,13": 8,
      "5,14": 8,
      "5,15": 8,
      "5,16": 8,
      "5,17": 8,
      "5,18": 8,
      "5,19": 8,
      "5,20": 8,
      "5,21": 8,
      "6,0": 0,
      "6,1": 7,
      "6,2": 10,
      "6,3": 10,
      "6,4": 10,
      "6,5": 10,
      "6,6": 10,
      "6,7": 10,
      "6,8": 10,
      "6,9": 10,
      "6,10": 10,
      "6,11": 10,
      "6,12": 10,
      "6,13": 10,
      "6,14": 10,
      "6,15": 10,
      "6,16": 10,
      "6,17": 8,
      "6,18": 8,
      "6,19": 8,
      "6,20": 8,
      "6,21": 8,
      "7,0": 0,
      "7,1": 7,
      "7,2": 7,
      "7,3": 10,
      "7,4": 10,
      "7,5": 10,
      "7,6": 10,
      "7,7": 10,
      "7,8": 10,
      "7,9": 10,
      "7,10": 10,
      "7,11": 10,
      "7,12": 10,
      "7,13": 10,
      "7,14": 10,
      "7,15": 10,
      "7,16": 10,
      "7,17": 4,
      "7,18": 4,
      "7,19": 4,
      "7,20": 4,
      "7,21": 4,
      "8,0": 0,
      "8,1": 7,
      "8,2": 7,
      "8,3": 7,
      "8,4": 10,
      "8,5": 10,
      "8,6": 10,
      "8,7": 10,
      "8,8": 10,
      "8,9": 10,
      "8,10": 10,
      "8,11": 10,
      "8,12": 10,
      "8,13": 10,
      "8,14": 10,
      "8,15": 10,
      "8,16": 10,
      "8,17": 4,
      "8,18": 4,
      "8,19": 4,
      "8,20": 4,
      "8,21": 4,
      "9,0": 0,
      "9,1": 7,
      "9,2": 7,
      "9,3": 7,
      "9,4": 10,
      "9,5": 10,
      "9,6": 10,
      "9,7": 10,
      "9,8": 10,
      "9,9": 10,
      "9,10": 10,
      "9,11": 10,
      "9,12": 10,
      "9,13": 10,
      "9,14": 10,
      "9,15": 10,
      "9,16": 10,
      "9,17": 4,
      "9,18": 4,
      "9,19": 4,
      "9,20": 4,
      "9,21": 4,
      "10,0": 0,
      "10,1": 7,
      "10,2": 7,
      "10,3": 7,
      "10,4": 10,
      "10,5": 10,
      "10,6": 10,
      "10,7": 10,
      "10,8": 10,
      "10,9": 10,
      "10,10": 10,
      "10,11": 10,
      "10,12": 10,
      "10,13": 10,
      "10,14": 10,
      "10,15": 10,
      "10,16": 10,
      "10,17": 4,
      "10,18": 4,
      "10,19": 4,
      "10,20": 4,
      "10,21": 4,
      "11,0": 0,
      "11,1": 7,
      "11,2": 7,
      "11,3": 10,
      "11,4": 10,
      "11,5": 10,
      "11,6": 10,
      "11,7": 10,
      "11,8": 10,
      "11,9": 10,
      "11,10": 10,
      "11,11": 10,
      "11,12": 10,
      "11,13": 10,
      "11,14": 10,
      "11,15": 10,
      "11,16": 10,
      "11,17": 4,
      "11,18": 4,
      "11,19": 4,
      "11,20": 4,
      "11,21": 4,
      "12,0": 0,
      "12,1": 7,
      "12,2": 7,
      "12,3": 10,
      "12,4": 10,
      "12,5": 10,
      "12,6": 10,
      "12,7": 10,
      "12,8": 10,
      "12,9": 10,
      "12,10": 10,
      "12,11": 10,
      "12,12": 10,
      "12,13": 10,
      "12,14": 10,
      "12,15": 10,
      "12,16": 10,
      "12,17": 4,
      "12,18": 4,
      "12,19": 4,
      "12,20": 4,
      "12,21": 4,
      "13,0": 0,
      "13,1": 7,
      "13,2": 7,
      "13,3": 10,
      "13,4": 7,
      "13,5": 7,
      "13,6": 7,
      "13,7": 7,
      "13,8": 7,
      "13,9": 7,
      "13,10": 7,
      "13,11": 7,
      "13,12": 7,
      "13,13": 7,
      "13,14": 7,
      "13,15": 7,
      "13,16": 7,
      "13,17": 4,
      "13,18": 4,
      "13,19": 4,
      "13,20": 4,
      "13,21": 4,
      "14,0": 0,
      "14,1": 7,
      "14,2": 7,
      "14,3": 7,
      "14,4": 10,
      "14,5": 10,
      "14,6": 10,
      "14,7": 10,
      "14,8": 10,
      "14,9": 10,
      "14,10": 10,
      "14,11": 10,
      "14,12": 10,
      "14,13": 10,
      "14,14": 10,
      "14,15": 10,
      "14,16": 10,
      "14,17": 5,
      "14,18": 5,
      "14,19": 5,
      "14,20": 5,
      "14,21": 5,
      "15,0": 0,
      "15,1": 11,
      "15,2": 7,
      "15,3": 7,
      "15,4": 11,
      "15,5": 11,
      "15,6": 11,
      "15,7": 11,
      "15,8": 11,
      "15,9": 11,
      "15,10": 11,
      "15,11": 11,
      "15,12": 11,
      "15,13": 11,
      "15,14": 11,
      "15,15": 11,
      "15,16": 11,
      "15,17": 4,
      "15,18": 4,
      "15,19": 4,
      "15,20": 4,
      "15,21": 4,
      "16,0": 0,
      "16,1": 11,
      "16,2": 12,
      "16,3": 12,
      "16,4": 11,
      "16,5": 11,
      "16,6": 11,
      "16,7": 11,
      "16,8": 11,
      "16,9": 11,
      "16,10": 11,
      "16,11": 11,
      "16,12": 11,
      "16,13": 11,
      "16,14": 11,
      "16,15": 11,
      "16,16": 11,
      "16,17": 8,
      "16,18": 8,
      "16,19": 8,
      "16,20": 8,
      "16,21": 8,
      "17,0": 0,
      "17,1": 13,
      "17,2": 7,
      "17,3": 7,
      "17,4": 14,
      "17,5": 14,
      "17,6": 14,
      "17,7": 14,
      "17,8": 14,
      "17,9": 14,
      "17,10": 14,
      "17,11": 14,
      "17,12": 14,
      "17,13": 14,
      "17,14": 14,
      "17,15": 14,
      "17,16": 15,
      "17,17": 0,
      "18,0": 0,
      "18,2": 16,
      "18,17": 0,
      "19,0": 8,
      "19,1": 8,
      "19,2": 8,
      "19,3": 8,
      "19,4": 8,
      "19,5": 8,
      "19,6": 8,
      "19,7": 8,
      "19,8": 8,
      "19,9": 8,
      "19,10": 8,
      "19,11": 8,
      "19,12": 8,
      "19,13": 8,
      "19,14": 8,
      "19,15": 8,
      "19,16": 8,
      "19,17": 8,
      "20,0": 8,
      "20,1": 8,
      "20,2": 8,
      "20,3": 8,
      "20,4": 8,
      "20,5": 8,
      "20,6": 8,
      "20,7": 8,
      "20,8": 8,
      "20,9": 8,
      "20,10": 8,
      "20,11": 8,
      "20,12": 8,
      "20,13": 8,
      "20,14": 8,
      "20,15": 8,
      "20,16": 8,
      "20,17": 8,
      "21,0": 8,
      "21,1": 8,
      "21,2": 8,
      "21,3": 8,
      "21,4": 8,
      "21,5": 8,
      "21,6": 8,
      "21,7": 8,
      "21,8": 8,
      "21,9": 8,
      "21,10": 8,
      "21,11": 8,
      "21,12": 8,
      "21,13": 8,
      "21,14": 8,
      "21,15": 8,
      "21,16": 8,
      "21,17": 8,
      "22,0": 8,
      "22,1": 8,
      "22,2": 8,
      "22,3": 8,
      "22,4": 8,
      "22,5": 8,
      "22,6": 8,
      "22,7": 8,
      "22,8": 8,
      "22,9": 8,
      "22,10": 8,
      "22,11": 8,
      "22,12": 8,
      "22,13": 8,
      "22,14": 8,
      "22,15": 8,
      "22,16": 8,
      "22,17": 8,
      "23,0": 8,
      "23,1": 8,
      "23,2": 8,
      "23,3": 8,
      "23,4": 8,
      "23,5": 8,
      "23,6": 8,
      "23,7": 8,
      "23,8": 8,
      "23,9": 8,
      "23,10": 8,
      "23,11": 8,
      "23,12": 8,
      "23,13": 8,
      "23,14": 8,
      "23,15": 8,
      "23,16": 8,
      "23,17": 8,
      "24,13": 0,
      "24,17": 0
    },
    "RowStyles": {
      "0": 17,
      "1": 17,
      "2": 17,
      "3": 17,
      "4": 17,
      "5": 17,
      "6": 17,
      "7": 17,
      "8": 17,
      "9": 17,
      "10": 17,
      "11": 17,
      "12": 17,
      "13": 17,
      "14": 17,
      "15": 17,
      "16": 17,
      "17": 17
    },
    "SheetStyle": {
      "FontFamily": 2,
      "FontSize": 13.333333015441895
    }
  },
  "Spans": [
    "19,0,3,18"
  ],
  "PageInfo": {
    "$type": "Forguncy.Model.Pages.NormalPage, Forguncy",
    "MasterPageName": "BentoMasterPage_mobile",
    "PageLoadedCommandList": [
      {
        "$type": "Forguncy.Model.QueryCommand, Forguncy",
        "TargetTableName": "Bento",
        "Params": [],
        "ID": "01f24a4841ec4941a1e05d12baa25a09"
      }
    ],
    "AuthorizeInfo": {
      "VisitMode": 7,
      "AllowVisitedRoles": [
        "Administrator",
        "soumu"
      ]
    },
    "IsMobilePage": true,
    "Name": "Help_mobile",
    "Weight": 0
  },
  "PrintInfo": {
    "Margin": {},
    "PaperSize": {}
  }
}