{
  "Rows": {
    "Sizes": {
      "0": 20.0,
      "1": 20.0,
      "10": 23.0
    },
    "Count": 11,
    "DefaultSize": 27.0
  },
  "Cols": {
    "Count": 13,
    "DefaultSize": 27.0
  },
  "Values": {
    "3,1": "注文日",
    "5,1": "弁当種類",
    "5,6": "0",
    "8,1": "注文",
    "8,7": "キャンセル"
  },
  "AttachInfos": {
    "5,6": {
      "CellType": {
        "$type": "Forguncy.DropDownListCellType, Forguncy",
        "IsBounding": true,
        "Items": [
          {
            "Value": "項目1",
            "DisplayValue": "項目1"
          },
          {
            "Value": "項目2",
            "DisplayValue": "項目2"
          },
          {
            "Value": "項目3",
            "DisplayValue": "項目3"
          }
        ],
        "DataSource": "Bento",
        "ValueColumnBindingInfo": {
          "TableName": "Bento",
          "ColumnName": "ID"
        },
        "DisplayColumnBindingInfo": {
          "TableName": "Bento",
          "ColumnName": "BentoWithPrice"
        },
        "CellDefaultValue": "0"
      },
      "BindingInfo": {
        "TableName": "BentoOrder",
        "ColumnName": "BentoID",
        "RelationBinding": {
          "RelatedTable": "Bento",
          "RelatedColumn": "ID",
          "DisplayColumn": "ID"
        }
      },
      "DataValidationInfo": {
        "IgnoreBlank": false,
        "InputMessageTitle": null,
        "InputMessage": null,
        "ErrorMessage": null,
        "SelectedDefaultRegularExpression": null
      }
    },
    "8,1": {
      "CellType": {
        "$type": "Forguncy.ButtonCellType, Forguncy",
        "CommandList": [
          {
            "$type": "Forguncy.Model.UpdateDataTableCommand, Forguncy",
            "TableName": "BentoOrder",
            "UpdateType": "add",
            "ShowConfirm": false,
            "ConfirmText": "本当に追加してもよろしいですか？",
            "UpdateValues": [
              {
                "ColumnName": "BentoID",
                "Value": {
                  "$type": "Forguncy.Model.FormulaReferObject, Forguncy",
                  "SerializeProperty": "=NewBentoOrder!G6"
                }
              },
              {
                "ColumnName": "OrderDate",
                "Value": {
                  "$type": "Forguncy.Model.FormulaReferObject, Forguncy",
                  "SerializeProperty": "=NewBentoOrder!G4"
                }
              },
              {
                "ColumnName": "OrderPerson",
                "Value": "%CurrentUser%"
              }
            ]
          },
          {
            "$type": "Forguncy.Model.ClosePopupCommand, Forguncy",
            "ReloadData": true
          }
        ],
        "Text": "注文"
      }
    },
    "8,7": {
      "CellType": {
        "$type": "Forguncy.ButtonCellType, Forguncy",
        "CommandList": [
          {
            "$type": "Forguncy.Model.ClosePopupCommand, Forguncy",
            "ReloadData": true
          }
        ],
        "Text": "キャンセル"
      }
    }
  },
  "StyleDatas": {
    "Styles": [
      {
        "Background": null,
        "FontSize": 16.0,
        "FontStyle": 0,
        "FontWeight": 0,
        "Foreground": 1,
        "Formatter": 2,
        "TextIndent": 0,
        "HorizontalAlignment": 3,
        "VerticalAlignment": 4,
        "WordWrap": false,
        "Underline": false,
        "Strikethrough": false,
        "BorderBottom": null,
        "BorderTop": null,
        "BorderLeft": null,
        "BorderRight": null
      },
      {
        "FontSize": 16.0,
        "Formatter": 2,
        "BorderBottom": null
      },
      {
        "FontSize": 16.0,
        "Formatter": 2,
        "HorizontalAlignment": 5,
        "BorderBottom": null
      },
      {
        "FontSize": 16.0,
        "Formatter": 2,
        "HorizontalAlignment": 6,
        "BorderBottom": null
      },
      {
        "FontSize": 16.0,
        "Formatter": 2,
        "BorderBottom": null,
        "BorderRight": null
      },
      {
        "Background": null,
        "FontSize": 16.0,
        "FontStyle": 0,
        "FontWeight": 0,
        "Foreground": null,
        "Formatter": 7,
        "TextIndent": 0,
        "HorizontalAlignment": 3,
        "VerticalAlignment": 4,
        "WordWrap": false,
        "Underline": false,
        "Strikethrough": false,
        "BorderBottom": null,
        "BorderTop": null,
        "BorderLeft": null,
        "BorderRight": null
      },
      {
        "FontSize": 16.0,
        "Formatter": 2,
        "BorderBottom": null,
        "BorderLeft": null
      },
      {
        "Background": null,
        "FontSize": 16.0,
        "FontStyle": 0,
        "FontWeight": 0,
        "Foreground": 1,
        "Formatter": 8,
        "TextIndent": 0,
        "HorizontalAlignment": 4,
        "VerticalAlignment": 4,
        "WordWrap": false,
        "Underline": false,
        "Strikethrough": false,
        "BorderBottom": null,
        "BorderTop": null,
        "BorderLeft": null,
        "BorderRight": null
      },
      {
        "FontSize": 16.0,
        "Formatter": 2,
        "BorderBottom": null,
        "BorderTop": null
      },
      {
        "Background": null,
        "FontSize": 16.0,
        "FontStyle": 0,
        "FontWeight": 0,
        "Foreground": null,
        "Formatter": 9,
        "TextIndent": 0,
        "HorizontalAlignment": 3,
        "VerticalAlignment": 4,
        "WordWrap": false,
        "Underline": false,
        "Strikethrough": false,
        "BorderBottom": null,
        "BorderTop": null,
        "BorderLeft": null
      },
      {
        "FontSize": 16.0,
        "Formatter": 2,
        "BorderBottom": 0,
        "BorderTop": 0,
        "BorderLeft": 0
      },
      {
        "FontSize": 16.0,
        "Formatter": 2,
        "BorderBottom": 0,
        "BorderTop": 0
      },
      {
        "FontSize": 16.0,
        "Formatter": 2,
        "BorderBottom": 0,
        "BorderTop": 0,
        "BorderRight": 0
      }
    ],
    "Types": {
      "Strs": [
        "Normal",
        "#FF000000",
        "[AUTO]General",
        "General",
        "Center",
        "Right",
        "Left",
        "yyyy\"年\"m\"月\"d\"日\";@",
        "yyyy/MM/dd",
        " ¥#,##0_);[Red] ¥(#,##0)",
        "メイリオ"
      ],
      "Borders": [
        {
          "Color": 1
        }
      ]
    },
    "CellStyles": {
      "2,0": 0,
      "2,1": 0,
      "2,2": 0,
      "2,3": 0,
      "2,4": 1,
      "2,5": 1,
      "2,6": 1,
      "2,7": 1,
      "2,8": 1,
      "2,9": 1,
      "2,10": 1,
      "2,11": 1,
      "2,12": 1,
      "3,0": 2,
      "3,1": 3,
      "3,2": 3,
      "3,3": 3,
      "3,4": 3,
      "3,5": 4,
      "3,6": 5,
      "3,7": 5,
      "3,8": 5,
      "3,9": 5,
      "3,10": 5,
      "3,11": 6,
      "3,12": 1,
      "4,0": 7,
      "4,1": 7,
      "4,2": 7,
      "4,3": 1,
      "4,4": 1,
      "4,5": 1,
      "4,6": 8,
      "4,7": 8,
      "4,8": 8,
      "4,9": 8,
      "4,10": 8,
      "4,11": 1,
      "4,12": 9,
      "5,0": 2,
      "5,1": 3,
      "5,2": 3,
      "5,3": 3,
      "5,4": 3,
      "5,5": 4,
      "5,6": 10,
      "5,7": 11,
      "5,8": 11,
      "5,9": 11,
      "5,10": 11,
      "5,11": 12,
      "5,12": 6,
      "6,0": 2,
      "6,1": 3,
      "6,2": 3,
      "6,3": 3,
      "6,4": 3,
      "6,5": 1,
      "6,6": 8,
      "6,7": 8,
      "6,8": 8,
      "6,9": 8,
      "6,10": 8,
      "6,11": 8,
      "6,12": 1,
      "7,0": 7,
      "7,1": 7,
      "7,2": 7,
      "7,3": 1,
      "7,4": 1,
      "7,5": 1,
      "7,6": 1,
      "7,7": 1,
      "7,8": 1,
      "7,9": 1,
      "7,10": 1,
      "7,11": 1,
      "7,12": 1,
      "8,0": 7,
      "8,1": 1,
      "8,2": 1,
      "8,3": 1,
      "8,4": 1,
      "8,5": 1,
      "8,6": 1,
      "8,7": 1,
      "8,8": 1,
      "8,9": 1,
      "8,10": 1,
      "8,12": 1,
      "9,0": 7
    },
    "SheetStyle": {
      "FontFamily": 10
    }
  },
  "Spans": [
    "3,1,1,4",
    "5,1,1,4",
    "5,6,1,6",
    "8,1,1,4",
    "8,7,1,4",
    "3,6,1,5"
  ],
  "PageInfo": {
    "$type": "Forguncy.Model.Pages.NormalPage, Forguncy",
    "Title": "弁当注文",
    "PageOverflowMode": 2,
    "AuthorizeInfo": {
      "VisitMode": 6,
      "AllowVisitedRoles": [
        "Administrator",
        "soumu"
      ]
    },
    "Name": "NewBentoOrder",
    "Weight": 2
  },
  "PrintInfo": {
    "Margin": {},
    "PaperSize": {}
  }
}