{
  "Rows": {
    "Sizes": {
      "0": 5.0
    },
    "Count": 40
  },
  "Cols": {
    "Sizes": {
      "0": 6.0
    },
    "Count": 51
  },
  "Values": {
    "1,4": "弁当予約管理",
    "2,40": "%CurrentUser%",
    "6,5": "弁当注文",
    "10,5": "注文履歴",
    "15,3": "管理メニュー",
    "19,3": "ヘルプ"
  },
  "AttachInfos": {
    "1,1": {
      "CellType": {
        "$type": "Forguncy.ImageCellType, Forguncy",
        "ImageSizeMode": 1,
        "ImagePath": "Home3.png",
        "BuiltIn": true
      }
    },
    "1,4": {
      "CellType": {
        "$type": "Forguncy.HyperlinkCellType, Forguncy",
        "CommandList": [
          {
            "$type": "Forguncy.Model.NavigateCommand, Forguncy",
            "PageName": "HomePage",
            "PassValues": []
          }
        ],
        "Text": "弁当予約管理"
      }
    },
    "2,40": {
      "CellType": {
        "$type": "Forguncy.CurrentUserCellType, Forguncy",
        "ShowUserPicture": false,
        "NavigateToHomePageWhenLogout": true,
        "CellCustomValue": "%CurrentUser%"
      }
    },
    "6,2": {
      "CellType": {
        "$type": "Forguncy.ImageCellType, Forguncy",
        "ImageSizeMode": 1,
        "ImagePath": "edit2.png",
        "BuiltIn": true
      }
    },
    "6,5": {
      "CellType": {
        "$type": "Forguncy.HyperlinkCellType, Forguncy",
        "CommandList": [
          {
            "$type": "Forguncy.Model.QueryCommand, Forguncy",
            "TargetTableName": "BentoOrder",
            "SqlCondition": {
              "$type": "ForguncyDataAccess.RelationSqlCondition, ForguncyDataAccess",
              "Condition1": {
                "$type": "ForguncyDataAccess.GeneralCESqlCondition, ForguncyDataAccess",
                "ColumnBindingInfo": {
                  "TableName": "BentoOrder",
                  "ColumnName": "OrderPerson"
                },
                "Value": {
                  "$type": "Forguncy.Model.FormulaReferObject, Forguncy",
                  "SerializeProperty": "%CurrentUser%"
                },
                "Id": "45aa5f56-e0c8-4ded-b211-52b20cedf531"
              },
              "Condition2": {
                "$type": "ForguncyDataAccess.GeneralCESqlCondition, ForguncyDataAccess",
                "CompareType": 3,
                "ColumnBindingInfo": {
                  "TableName": "BentoOrder",
                  "ColumnName": "OrderDate"
                },
                "Value": {
                  "$type": "Forguncy.Model.FormulaReferObject, Forguncy",
                  "SerializeProperty": "=DATE(YEAR(TODAY()),MONTH(TODAY()),1)"
                },
                "Id": "0d5c24a4-89ec-4631-80a5-73ffdd4c7d6c"
              },
              "Id": "07cfa9bf-a23a-4ddc-be6a-0bf8cfe5ce60"
            },
            "Params": [
              "=DATE(YEAR(TODAY()),MONTH(TODAY()),1)"
            ],
            "ID": "08a61d31f6d2470eade692333e64ecc4"
          },
          {
            "$type": "Forguncy.Model.NavigateCommand, Forguncy",
            "PageName": "MyBentoList",
            "PassValues": []
          }
        ],
        "Text": "弁当注文"
      }
    },
    "6,12": {
      "IsPlaceHolderCell": true
    },
    "10,2": {
      "CellType": {
        "$type": "Forguncy.ImageCellType, Forguncy",
        "ImageSizeMode": 1,
        "ImagePath": "List.png",
        "BuiltIn": true
      }
    },
    "10,5": {
      "CellType": {
        "$type": "Forguncy.HyperlinkCellType, Forguncy",
        "CommandList": [
          {
            "$type": "Forguncy.Model.NavigateCommand, Forguncy",
            "PageName": "OrderListViewForOrderPerson",
            "PassValues": []
          },
          {
            "$type": "Forguncy.Model.QueryCommand, Forguncy",
            "TargetTableName": "BentoOrder",
            "Params": [],
            "ID": "b0f866194d8f4500949c2443092da07f"
          }
        ],
        "Text": "注文履歴"
      }
    },
    "15,3": {
      "CellType": {
        "$type": "Forguncy.HyperlinkCellType, Forguncy",
        "CommandList": [
          {
            "$type": "Forguncy.Model.ConditionCommand, Forguncy",
            "ConditionAndCommandPairList": [
              {
                "Condition": {
                  "$type": "Forguncy.Model.IfCondition, Forguncy",
                  "param": {
                    "$type": "Forguncy.Model.IfConditionCurrentUserInfoParam, Forguncy",
                    "currentUserProperty": {
                      "UserProperty": "ロール",
                      "PropertyType": 3
                    }
                  },
                  "value": "soumu",
                  "compareType": 10,
                  "Id": "bd47581c-9f15-4335-b72a-b7640cb03e1e"
                },
                "CommandList": [
                  {
                    "$type": "Forguncy.Model.QueryCommand, Forguncy",
                    "TargetTableName": "BentoOrder",
                    "SqlCondition": {
                      "$type": "ForguncyDataAccess.GeneralCESqlCondition, ForguncyDataAccess",
                      "ColumnBindingInfo": {
                        "TableName": "BentoOrder",
                        "ColumnName": "OrderDate"
                      },
                      "Value": {
                        "$type": "Forguncy.Model.FormulaReferObject, Forguncy",
                        "SerializeProperty": "=TODAY()"
                      },
                      "Id": "a9ddcc87-73cb-467f-a5ee-64aeb0180598"
                    },
                    "Params": [
                      "=TODAY()"
                    ],
                    "ID": "1f63fe25c5a14a01a07a3ab44546abaf"
                  },
                  {
                    "$type": "Forguncy.Model.NavigateCommand, Forguncy",
                    "PageName": "AdminMenu",
                    "PassValues": []
                  }
                ],
                "Comments": "総務担当者（soumuロールに含まれる）かどうかにより処理を分岐します。",
                "ID": "812d559c-3679-4a6c-a47d-63d1b407a113"
              },
              {
                "CommandList": [
                  {
                    "$type": "Forguncy.Model.ShowMessageCommand, Forguncy",
                    "Message": "管理メニューを利用できるのは総務担当者のみです。"
                  }
                ],
                "ID": "9dbba5ec-45e6-4db0-9483-9288bd501a76"
              }
            ]
          }
        ],
        "Text": "管理メニュー"
      }
    },
    "19,3": {
      "CellType": {
        "$type": "Forguncy.HyperlinkCellType, Forguncy",
        "CommandList": [
          {
            "$type": "Forguncy.Model.NavigateCommand, Forguncy",
            "PageName": "HomePage",
            "PassValues": []
          }
        ],
        "Text": "ヘルプ"
      }
    }
  },
  "StyleDatas": {
    "Styles": [
      {
        "FontSize": 14.670000076293945,
        "BorderBottom": null,
        "BorderTop": null,
        "BorderLeft": null,
        "BorderRight": null
      },
      {
        "Background": 0,
        "FontFamily": 1,
        "FontSize": 42.666667938232422,
        "Foreground": 2,
        "Formatter": 3,
        "VerticalAlignment": 4,
        "Underline": false,
        "BorderBottom": null,
        "BorderTop": null,
        "BorderLeft": null,
        "BorderRight": null
      },
      {
        "FontSize": 14.670000076293945,
        "BorderTop": null
      },
      {
        "FontSize": 16.0,
        "Foreground": 2,
        "HorizontalAlignment": 5,
        "BorderBottom": null,
        "BorderTop": null,
        "BorderLeft": null,
        "BorderRight": null
      },
      {
        "FontSize": 16.0,
        "Foreground": 2,
        "Formatter": 3,
        "Underline": false
      },
      {
        "FontSize": 16.0,
        "Foreground": 2,
        "Formatter": 3,
        "Underline": false,
        "BorderBottom": null,
        "BorderTop": null,
        "BorderLeft": null,
        "BorderRight": null
      },
      {
        "Background": 0,
        "FontFamily": 1,
        "FontSize": 16.0,
        "Foreground": 2,
        "HorizontalAlignment": 5,
        "BorderBottom": null,
        "BorderTop": null,
        "BorderLeft": null,
        "BorderRight": null
      },
      {
        "BorderBottom": null,
        "BorderTop": null,
        "BorderLeft": null,
        "BorderRight": null
      },
      {
        "Background": 2
      },
      {
        "Background": 6,
        "FontSize": 14.670000076293945
      },
      {
        "Background": 6,
        "FontSize": 14.670000076293945,
        "BorderBottom": null
      },
      {
        "Background": 6,
        "FontSize": 14.670000076293945,
        "BorderBottom": null,
        "BorderTop": null,
        "BorderLeft": null,
        "BorderRight": null
      },
      {
        "Background": 6
      },
      {
        "Background": 6,
        "BorderBottom": null,
        "BorderTop": null,
        "BorderLeft": null,
        "BorderRight": null
      },
      {
        "Background": 6,
        "FontSize": 16.0,
        "FontWeight": 7,
        "Formatter": 3,
        "HorizontalAlignment": 8,
        "BorderRight": null
      },
      {
        "Background": 6,
        "FontSize": 16.0,
        "FontWeight": 7,
        "Formatter": 3,
        "HorizontalAlignment": 8,
        "BorderBottom": null,
        "BorderTop": null,
        "BorderLeft": null,
        "BorderRight": null
      },
      {
        "Background": 6,
        "FontFamily": 1,
        "FontSize": 18.666666030883789,
        "Foreground": 9,
        "TextIndent": 0,
        "HorizontalAlignment": 10,
        "Underline": false,
        "BorderBottom": null,
        "BorderTop": null,
        "BorderLeft": null,
        "BorderRight": null
      },
      {
        "Background": 6,
        "FontSize": 16.0,
        "FontWeight": 7,
        "Formatter": 3,
        "HorizontalAlignment": 8,
        "BorderLeft": null
      },
      {
        "Background": 11,
        "FontFamily": 12,
        "FontSize": 14.670000076293945
      },
      {
        "Background": 6,
        "FontSize": 14.670000076293945,
        "BorderRight": null
      },
      {
        "Background": 6,
        "FontSize": 14.670000076293945,
        "BorderLeft": null
      },
      {
        "Background": 6,
        "FontSize": 14.670000076293945,
        "Foreground": 9,
        "Underline": true,
        "BorderBottom": null,
        "BorderTop": null
      },
      {
        "Background": 6,
        "FontSize": 14.670000076293945,
        "BorderBottom": null,
        "BorderTop": null
      },
      {
        "Background": 6,
        "FontSize": 14.670000076293945,
        "BorderTop": null
      },
      {
        "Background": 6,
        "FontSize": 16.0,
        "FontWeight": 7,
        "Formatter": 3,
        "HorizontalAlignment": 8
      },
      {
        "Background": 6,
        "FontSize": 16.0,
        "FontWeight": 7,
        "Formatter": 3,
        "HorizontalAlignment": 8,
        "BorderTop": null
      },
      {
        "Background": 6,
        "BorderBottom": null
      },
      {
        "Background": 2,
        "FontFamily": 1,
        "Foreground": 13,
        "BorderTop": 0,
        "BorderLeft": 0
      },
      {
        "Background": 2,
        "FontFamily": 1,
        "FontSize": 18.666666030883789,
        "Foreground": 15,
        "Formatter": 3,
        "Underline": false,
        "BorderBottom": null,
        "BorderTop": 0,
        "BorderLeft": null,
        "BorderRight": null
      },
      {
        "Background": 2,
        "FontFamily": 1,
        "FontSize": 18.666666030883789,
        "Foreground": 16,
        "Underline": false,
        "BorderBottom": null,
        "BorderTop": 0,
        "BorderLeft": null,
        "BorderRight": 0
      },
      {
        "Background": 2,
        "FontFamily": 1,
        "FontSize": 14.670000076293945,
        "Foreground": 13,
        "BorderLeft": 0,
        "BorderRight": null
      },
      {
        "Background": 2,
        "FontFamily": 1,
        "FontSize": 18.666666030883789,
        "Foreground": 15,
        "Formatter": 3,
        "Underline": false,
        "BorderBottom": null,
        "BorderTop": null,
        "BorderLeft": null,
        "BorderRight": null
      },
      {
        "Background": 2,
        "FontFamily": 1,
        "FontSize": 18.666666030883789,
        "Foreground": 16,
        "Underline": false,
        "BorderBottom": null,
        "BorderTop": null,
        "BorderLeft": null,
        "BorderRight": 0
      },
      {
        "Background": 2,
        "FontFamily": 1,
        "FontSize": 16.0,
        "FontWeight": 7,
        "Foreground": 13,
        "Formatter": 3,
        "HorizontalAlignment": 8,
        "BorderBottom": 0,
        "BorderLeft": 0
      },
      {
        "Background": 2,
        "FontFamily": 1,
        "FontSize": 18.666666030883789,
        "Foreground": 15,
        "Formatter": 3,
        "Underline": false,
        "BorderBottom": 0,
        "BorderTop": null,
        "BorderLeft": null,
        "BorderRight": null
      },
      {
        "Background": 2,
        "FontFamily": 1,
        "FontSize": 18.666666030883789,
        "Foreground": 16,
        "Underline": false,
        "BorderBottom": 0,
        "BorderTop": null,
        "BorderLeft": null,
        "BorderRight": 0
      },
      {
        "Background": 6,
        "BorderBottom": null,
        "BorderTop": null
      },
      {
        "Background": 2,
        "FontFamily": 1,
        "FontSize": 21.333333969116211,
        "Foreground": 17,
        "Formatter": 3,
        "Underline": false,
        "BorderBottom": null,
        "BorderTop": 0,
        "BorderLeft": null,
        "BorderRight": null
      },
      {
        "Background": 2,
        "FontFamily": 1,
        "FontSize": 21.333333969116211,
        "Foreground": 17,
        "Formatter": 3,
        "Underline": false,
        "BorderBottom": null,
        "BorderTop": 0,
        "BorderLeft": null,
        "BorderRight": 0
      },
      {
        "Background": 2,
        "FontFamily": 1,
        "FontSize": 21.333333969116211,
        "Foreground": 17,
        "Formatter": 3,
        "Underline": false,
        "BorderBottom": null,
        "BorderTop": null,
        "BorderLeft": null,
        "BorderRight": null
      },
      {
        "Background": 2,
        "FontFamily": 1,
        "FontSize": 21.333333969116211,
        "Foreground": 17,
        "Formatter": 3,
        "Underline": false,
        "BorderBottom": null,
        "BorderTop": null,
        "BorderLeft": null,
        "BorderRight": 0
      },
      {
        "Background": 2,
        "FontFamily": 1,
        "FontSize": 21.333333969116211,
        "Foreground": 17,
        "Formatter": 3,
        "Underline": false,
        "BorderBottom": 0,
        "BorderTop": null,
        "BorderLeft": null,
        "BorderRight": null
      },
      {
        "Background": 2,
        "FontFamily": 1,
        "FontSize": 21.333333969116211,
        "Foreground": 17,
        "Formatter": 3,
        "Underline": false,
        "BorderBottom": 0,
        "BorderTop": null,
        "BorderLeft": null,
        "BorderRight": 0
      },
      {
        "Background": 6,
        "FontSize": 14.670000076293945,
        "Foreground": 9,
        "Underline": true,
        "BorderTop": null
      },
      {
        "Background": 6,
        "FontFamily": 1,
        "FontSize": 14.670000076293945,
        "Foreground": 9,
        "Formatter": 3,
        "Underline": true,
        "BorderBottom": null,
        "BorderTop": null,
        "BorderLeft": null,
        "BorderRight": null
      },
      {
        "Background": 6,
        "FontFamily": 1,
        "FontSize": 14.670000076293945,
        "BorderBottom": null,
        "BorderTop": null,
        "BorderLeft": null,
        "BorderRight": null
      },
      {
        "Background": 6,
        "FontFamily": 1,
        "FontSize": 14.670000076293945
      },
      {
        "Background": 6,
        "FontFamily": 1,
        "FontSize": 14.670000076293945,
        "Foreground": 9,
        "Formatter": 3,
        "Underline": true,
        "BorderTop": null
      },
      {
        "Background": 6,
        "FontFamily": 1,
        "FontSize": 14.670000076293945,
        "Foreground": 9,
        "Underline": true,
        "BorderTop": null
      },
      {
        "Background": 0
      }
    ],
    "Types": {
      "Strs": [
        "#FF614A7B",
        "メイリオ",
        "#FFFFFFFF",
        "[AUTO]General",
        "Bottom",
        "Right",
        "#FFF2F2F2",
        "Normal",
        "Left",
        "#FF0000FF",
        "Center",
        "#FFD3D3D3",
        "ＭＳ Ｐゴシック",
        "#FF002060",
        "#FFBFBFBF",
        "#FF31869B",
        "#FF7F7F7F",
        "#FFC0504D"
      ],
      "Borders": [
        {
          "Color": 14
        }
      ]
    },
    "CellStyles": {
      "1,1": 0,
      "1,2": 0,
      "1,3": 0,
      "1,4": 1,
      "1,5": 1,
      "1,6": 1,
      "1,7": 1,
      "1,8": 1,
      "1,9": 1,
      "1,10": 1,
      "1,11": 1,
      "1,12": 1,
      "1,13": 1,
      "1,14": 1,
      "1,15": 1,
      "1,16": 1,
      "1,17": 1,
      "1,18": 1,
      "1,19": 1,
      "1,20": 1,
      "1,21": 1,
      "1,22": 2,
      "1,23": 2,
      "1,24": 2,
      "1,25": 2,
      "1,26": 0,
      "1,27": 0,
      "1,28": 0,
      "1,29": 0,
      "1,30": 0,
      "1,31": 2,
      "1,32": 2,
      "1,33": 2,
      "1,34": 2,
      "1,35": 2,
      "1,36": 2,
      "1,37": 2,
      "1,38": 2,
      "1,39": 2,
      "1,40": 2,
      "1,41": 2,
      "1,43": 3,
      "1,44": 3,
      "1,45": 3,
      "1,46": 3,
      "1,47": 3,
      "1,48": 3,
      "1,49": 3,
      "1,50": 2,
      "2,1": 0,
      "2,2": 0,
      "2,3": 0,
      "2,4": 1,
      "2,5": 1,
      "2,6": 1,
      "2,7": 1,
      "2,8": 1,
      "2,9": 1,
      "2,10": 1,
      "2,11": 1,
      "2,12": 1,
      "2,13": 1,
      "2,14": 1,
      "2,15": 1,
      "2,16": 1,
      "2,17": 1,
      "2,18": 1,
      "2,19": 1,
      "2,20": 1,
      "2,21": 1,
      "2,22": 4,
      "2,23": 4,
      "2,24": 4,
      "2,25": 4,
      "2,26": 5,
      "2,27": 5,
      "2,28": 5,
      "2,29": 5,
      "2,30": 5,
      "2,31": 4,
      "2,32": 2,
      "2,33": 2,
      "2,34": 2,
      "2,35": 2,
      "2,36": 2,
      "2,37": 2,
      "2,38": 2,
      "2,39": 2,
      "2,40": 6,
      "2,41": 6,
      "2,42": 6,
      "2,43": 6,
      "2,44": 6,
      "2,45": 6,
      "2,46": 6,
      "2,47": 6,
      "2,48": 6,
      "2,49": 6,
      "2,50": 2,
      "3,0": 7,
      "3,1": 0,
      "3,2": 0,
      "3,3": 0,
      "3,4": 1,
      "3,5": 1,
      "3,6": 1,
      "3,7": 1,
      "3,8": 1,
      "3,9": 1,
      "3,10": 1,
      "3,11": 1,
      "3,12": 1,
      "3,13": 1,
      "3,14": 1,
      "3,15": 1,
      "3,16": 1,
      "3,17": 1,
      "3,18": 1,
      "3,19": 1,
      "3,20": 1,
      "3,21": 1,
      "3,22": 5,
      "3,23": 5,
      "3,24": 5,
      "3,25": 5,
      "3,26": 5,
      "3,27": 5,
      "3,28": 5,
      "3,29": 5,
      "3,30": 5,
      "3,31": 5,
      "3,32": 0,
      "3,33": 0,
      "3,34": 0,
      "3,35": 0,
      "3,36": 0,
      "3,37": 0,
      "3,38": 0,
      "3,39": 0,
      "3,40": 6,
      "3,41": 6,
      "3,42": 6,
      "3,43": 6,
      "3,44": 6,
      "3,45": 6,
      "3,46": 6,
      "3,47": 6,
      "3,48": 6,
      "3,49": 6,
      "3,50": 0,
      "4,1": 0,
      "4,2": 0,
      "4,3": 0,
      "4,4": 1,
      "4,5": 1,
      "4,6": 1,
      "4,7": 1,
      "4,8": 1,
      "4,9": 1,
      "4,10": 1,
      "4,11": 1,
      "4,12": 1,
      "4,13": 1,
      "4,14": 1,
      "4,15": 1,
      "4,16": 1,
      "4,17": 1,
      "4,18": 1,
      "4,19": 1,
      "4,20": 1,
      "4,21": 1,
      "4,22": 4,
      "4,23": 4,
      "4,24": 4,
      "4,25": 4,
      "4,26": 5,
      "4,27": 5,
      "4,28": 5,
      "4,29": 5,
      "4,30": 5,
      "4,31": 4,
      "4,32": 2,
      "4,33": 2,
      "4,34": 2,
      "4,35": 2,
      "4,36": 2,
      "4,37": 2,
      "4,38": 2,
      "4,39": 2,
      "4,40": 2,
      "4,41": 2,
      "4,42": 3,
      "4,43": 3,
      "4,44": 3,
      "4,45": 3,
      "4,46": 3,
      "4,47": 3,
      "4,48": 3,
      "4,49": 3,
      "4,50": 2,
      "5,0": 8,
      "5,1": 9,
      "5,2": 10,
      "5,3": 10,
      "5,4": 10,
      "5,5": 11,
      "5,6": 10,
      "5,7": 11,
      "5,8": 10,
      "5,9": 10,
      "5,10": 9,
      "5,11": 9,
      "5,12": 12,
      "5,13": 12,
      "5,14": 12,
      "5,15": 12,
      "5,16": 12,
      "5,17": 12,
      "5,18": 12,
      "5,19": 12,
      "5,20": 12,
      "5,21": 12,
      "5,22": 12,
      "5,23": 12,
      "5,24": 12,
      "5,25": 12,
      "5,26": 12,
      "5,27": 12,
      "5,28": 12,
      "5,29": 12,
      "5,30": 12,
      "5,31": 12,
      "5,32": 12,
      "5,33": 12,
      "5,34": 12,
      "5,35": 12,
      "5,36": 12,
      "5,37": 12,
      "5,38": 12,
      "5,39": 12,
      "5,40": 12,
      "5,41": 12,
      "5,42": 12,
      "5,43": 13,
      "5,44": 12,
      "5,45": 12,
      "5,46": 12,
      "5,47": 12,
      "5,48": 12,
      "5,49": 12,
      "5,50": 12,
      "6,0": 8,
      "6,1": 14,
      "6,2": 15,
      "6,3": 15,
      "6,4": 15,
      "6,5": 16,
      "6,6": 16,
      "6,7": 16,
      "6,8": 16,
      "6,9": 16,
      "6,10": 17,
      "6,11": 9,
      "6,12": 18,
      "6,13": 12,
      "6,14": 12,
      "6,15": 12,
      "6,16": 12,
      "6,17": 12,
      "6,18": 12,
      "6,19": 12,
      "6,20": 12,
      "6,21": 12,
      "6,22": 12,
      "6,23": 12,
      "6,24": 12,
      "6,25": 12,
      "6,26": 13,
      "6,27": 13,
      "6,28": 13,
      "6,29": 13,
      "6,30": 13,
      "6,31": 12,
      "6,32": 12,
      "6,33": 12,
      "6,34": 12,
      "6,35": 12,
      "6,36": 12,
      "6,37": 12,
      "6,38": 12,
      "6,39": 12,
      "6,40": 12,
      "6,41": 12,
      "6,42": 12,
      "6,43": 13,
      "6,44": 12,
      "6,45": 12,
      "6,46": 12,
      "6,47": 12,
      "6,48": 12,
      "6,49": 12,
      "6,50": 12,
      "7,0": 8,
      "7,1": 14,
      "7,2": 15,
      "7,3": 15,
      "7,4": 15,
      "7,5": 16,
      "7,6": 16,
      "7,7": 16,
      "7,8": 16,
      "7,9": 16,
      "7,10": 17,
      "7,11": 9,
      "7,12": 12,
      "7,13": 12,
      "7,14": 12,
      "7,15": 12,
      "7,16": 12,
      "7,17": 12,
      "7,18": 12,
      "7,19": 12,
      "7,20": 12,
      "7,21": 12,
      "7,22": 12,
      "7,23": 12,
      "7,24": 12,
      "7,25": 12,
      "7,26": 13,
      "7,27": 13,
      "7,28": 13,
      "7,29": 13,
      "7,30": 13,
      "7,31": 12,
      "7,32": 12,
      "7,33": 12,
      "7,34": 12,
      "7,35": 12,
      "7,36": 12,
      "7,37": 12,
      "7,38": 12,
      "7,39": 12,
      "7,40": 12,
      "7,41": 12,
      "7,42": 12,
      "7,43": 13,
      "7,44": 12,
      "7,45": 12,
      "7,46": 12,
      "7,47": 12,
      "7,48": 12,
      "7,49": 12,
      "7,50": 12,
      "8,0": 8,
      "8,1": 19,
      "8,2": 15,
      "8,3": 15,
      "8,4": 15,
      "8,5": 16,
      "8,6": 16,
      "8,7": 16,
      "8,8": 16,
      "8,9": 16,
      "8,10": 20,
      "8,11": 9,
      "8,12": 12,
      "8,13": 12,
      "8,14": 12,
      "8,15": 12,
      "8,16": 12,
      "8,17": 12,
      "8,18": 12,
      "8,19": 12,
      "8,20": 12,
      "8,21": 12,
      "8,22": 12,
      "8,23": 12,
      "8,24": 12,
      "8,25": 12,
      "8,26": 13,
      "8,27": 13,
      "8,28": 13,
      "8,29": 13,
      "8,30": 13,
      "8,31": 12,
      "8,32": 12,
      "8,33": 12,
      "8,34": 12,
      "8,35": 12,
      "8,36": 12,
      "8,37": 12,
      "8,38": 12,
      "8,39": 12,
      "8,40": 12,
      "8,41": 12,
      "8,42": 12,
      "8,43": 13,
      "8,44": 12,
      "8,45": 12,
      "8,46": 12,
      "8,47": 12,
      "8,48": 12,
      "8,49": 12,
      "8,50": 12,
      "9,0": 8,
      "9,1": 9,
      "9,2": 21,
      "9,3": 22,
      "9,4": 22,
      "9,5": 11,
      "9,6": 22,
      "9,7": 11,
      "9,8": 22,
      "9,9": 22,
      "9,10": 9,
      "9,11": 9,
      "9,12": 12,
      "9,13": 12,
      "9,14": 12,
      "9,15": 12,
      "9,16": 12,
      "9,17": 12,
      "9,18": 12,
      "9,19": 12,
      "9,20": 12,
      "9,21": 12,
      "9,22": 12,
      "9,23": 12,
      "9,24": 12,
      "9,25": 12,
      "9,26": 13,
      "9,27": 13,
      "9,28": 13,
      "9,29": 13,
      "9,30": 13,
      "9,31": 12,
      "9,32": 12,
      "9,33": 12,
      "9,34": 12,
      "9,35": 12,
      "9,36": 12,
      "9,37": 12,
      "9,38": 12,
      "9,39": 12,
      "9,40": 12,
      "9,41": 12,
      "9,42": 12,
      "9,43": 13,
      "9,44": 12,
      "9,45": 12,
      "9,46": 12,
      "9,47": 12,
      "9,48": 12,
      "9,49": 12,
      "9,50": 12,
      "10,0": 8,
      "10,1": 19,
      "10,2": 13,
      "10,3": 13,
      "10,4": 13,
      "10,5": 16,
      "10,6": 16,
      "10,7": 16,
      "10,8": 16,
      "10,9": 16,
      "10,10": 20,
      "10,11": 9,
      "10,12": 12,
      "10,13": 12,
      "10,14": 12,
      "10,15": 12,
      "10,16": 12,
      "10,17": 12,
      "10,18": 12,
      "10,19": 12,
      "10,20": 12,
      "10,21": 12,
      "10,22": 12,
      "10,23": 12,
      "10,24": 12,
      "10,25": 12,
      "10,26": 13,
      "10,27": 13,
      "10,28": 13,
      "10,29": 13,
      "10,30": 13,
      "10,31": 12,
      "10,32": 12,
      "10,33": 12,
      "10,34": 12,
      "10,35": 12,
      "10,36": 12,
      "10,37": 12,
      "10,38": 12,
      "10,39": 12,
      "10,40": 12,
      "10,41": 12,
      "10,42": 12,
      "10,43": 13,
      "10,44": 12,
      "10,45": 12,
      "10,46": 12,
      "10,47": 12,
      "10,48": 12,
      "10,49": 12,
      "10,50": 23,
      "11,0": 8,
      "11,1": 19,
      "11,2": 13,
      "11,3": 13,
      "11,4": 13,
      "11,5": 16,
      "11,6": 16,
      "11,7": 16,
      "11,8": 16,
      "11,9": 16,
      "11,10": 20,
      "11,11": 9,
      "11,12": 23,
      "11,13": 23,
      "11,14": 23,
      "11,15": 23,
      "11,16": 23,
      "11,17": 23,
      "11,18": 23,
      "11,19": 23,
      "11,20": 23,
      "11,21": 23,
      "11,22": 23,
      "11,23": 23,
      "11,24": 23,
      "11,25": 23,
      "11,26": 11,
      "11,27": 11,
      "11,28": 11,
      "11,29": 11,
      "11,30": 11,
      "11,31": 23,
      "11,32": 23,
      "11,33": 23,
      "11,34": 23,
      "11,35": 23,
      "11,36": 23,
      "11,37": 23,
      "11,38": 23,
      "11,39": 23,
      "11,40": 23,
      "11,41": 23,
      "11,42": 23,
      "11,43": 11,
      "11,44": 23,
      "11,45": 23,
      "11,46": 23,
      "11,47": 23,
      "11,48": 23,
      "11,49": 23,
      "11,50": 12,
      "12,0": 8,
      "12,1": 14,
      "12,2": 13,
      "12,3": 13,
      "12,4": 13,
      "12,5": 16,
      "12,6": 16,
      "12,7": 16,
      "12,8": 16,
      "12,9": 16,
      "12,10": 17,
      "12,11": 9,
      "12,12": 12,
      "12,13": 12,
      "12,14": 12,
      "12,15": 12,
      "12,16": 12,
      "12,17": 12,
      "12,18": 12,
      "12,19": 12,
      "12,20": 12,
      "12,21": 12,
      "12,22": 12,
      "12,23": 12,
      "12,24": 12,
      "12,25": 12,
      "12,26": 13,
      "12,27": 13,
      "12,28": 13,
      "12,29": 13,
      "12,30": 13,
      "12,31": 12,
      "12,32": 12,
      "12,33": 12,
      "12,34": 12,
      "12,35": 12,
      "12,36": 12,
      "12,37": 12,
      "12,38": 12,
      "12,39": 12,
      "12,40": 12,
      "12,41": 12,
      "12,42": 12,
      "12,43": 13,
      "12,44": 12,
      "12,45": 12,
      "12,46": 12,
      "12,47": 12,
      "12,48": 12,
      "12,49": 12,
      "12,50": 12,
      "13,0": 8,
      "13,1": 24,
      "13,2": 25,
      "13,3": 25,
      "13,4": 25,
      "13,5": 15,
      "13,6": 25,
      "13,7": 15,
      "13,8": 25,
      "13,9": 25,
      "13,10": 24,
      "13,11": 9,
      "13,12": 12,
      "13,13": 12,
      "13,14": 12,
      "13,15": 12,
      "13,16": 12,
      "13,17": 12,
      "13,18": 12,
      "13,19": 12,
      "13,20": 12,
      "13,21": 12,
      "13,22": 12,
      "13,23": 12,
      "13,24": 12,
      "13,25": 12,
      "13,26": 13,
      "13,27": 13,
      "13,28": 13,
      "13,29": 13,
      "13,30": 13,
      "13,31": 12,
      "13,32": 12,
      "13,33": 12,
      "13,34": 12,
      "13,35": 12,
      "13,36": 12,
      "13,37": 12,
      "13,38": 12,
      "13,39": 12,
      "13,40": 12,
      "13,41": 12,
      "13,42": 12,
      "13,43": 13,
      "13,44": 12,
      "13,45": 12,
      "13,46": 12,
      "13,47": 12,
      "13,48": 12,
      "13,49": 12,
      "13,50": 12,
      "14,0": 8,
      "14,1": 9,
      "14,2": 26,
      "14,3": 26,
      "14,4": 26,
      "14,5": 26,
      "14,6": 26,
      "14,7": 26,
      "14,8": 10,
      "14,9": 10,
      "14,10": 9,
      "14,11": 9,
      "14,12": 12,
      "14,13": 12,
      "14,14": 12,
      "14,15": 12,
      "14,16": 12,
      "14,17": 12,
      "14,18": 12,
      "14,19": 12,
      "14,20": 12,
      "14,21": 12,
      "14,22": 12,
      "14,23": 12,
      "14,24": 12,
      "14,25": 12,
      "14,26": 13,
      "14,27": 13,
      "14,28": 13,
      "14,29": 13,
      "14,30": 13,
      "14,31": 12,
      "14,32": 12,
      "14,33": 12,
      "14,34": 12,
      "14,35": 12,
      "14,36": 12,
      "14,37": 12,
      "14,38": 12,
      "14,39": 12,
      "14,40": 12,
      "14,41": 12,
      "14,42": 12,
      "14,43": 13,
      "14,44": 12,
      "14,45": 12,
      "14,46": 12,
      "14,47": 12,
      "14,48": 12,
      "14,49": 12,
      "14,50": 12,
      "15,0": 8,
      "15,1": 19,
      "15,2": 27,
      "15,3": 28,
      "15,4": 28,
      "15,5": 28,
      "15,6": 28,
      "15,7": 28,
      "15,8": 28,
      "15,9": 29,
      "15,10": 20,
      "15,11": 9,
      "15,12": 12,
      "15,13": 12,
      "15,14": 12,
      "15,15": 12,
      "15,16": 12,
      "15,17": 12,
      "15,18": 12,
      "15,19": 12,
      "15,20": 12,
      "15,21": 12,
      "15,22": 12,
      "15,23": 12,
      "15,24": 12,
      "15,25": 12,
      "15,26": 13,
      "15,27": 13,
      "15,28": 13,
      "15,29": 13,
      "15,30": 13,
      "15,31": 12,
      "15,32": 12,
      "15,33": 12,
      "15,34": 12,
      "15,35": 12,
      "15,36": 12,
      "15,37": 12,
      "15,38": 12,
      "15,39": 12,
      "15,40": 12,
      "15,41": 12,
      "15,42": 12,
      "15,43": 13,
      "15,44": 12,
      "15,45": 12,
      "15,46": 12,
      "15,47": 12,
      "15,48": 12,
      "15,49": 12,
      "15,50": 12,
      "16,0": 8,
      "16,1": 19,
      "16,2": 30,
      "16,3": 31,
      "16,4": 31,
      "16,5": 31,
      "16,6": 31,
      "16,7": 31,
      "16,8": 31,
      "16,9": 32,
      "16,10": 20,
      "16,11": 9,
      "16,12": 12,
      "16,13": 12,
      "16,14": 12,
      "16,15": 12,
      "16,16": 12,
      "16,17": 12,
      "16,18": 12,
      "16,19": 12,
      "16,20": 12,
      "16,21": 12,
      "16,22": 12,
      "16,23": 12,
      "16,24": 12,
      "16,25": 12,
      "16,26": 13,
      "16,27": 13,
      "16,28": 13,
      "16,29": 13,
      "16,30": 13,
      "16,31": 12,
      "16,32": 12,
      "16,33": 12,
      "16,34": 12,
      "16,35": 12,
      "16,36": 12,
      "16,37": 12,
      "16,38": 12,
      "16,39": 12,
      "16,40": 12,
      "16,41": 12,
      "16,42": 12,
      "16,43": 13,
      "16,44": 12,
      "16,45": 12,
      "16,46": 12,
      "16,47": 12,
      "16,48": 12,
      "16,49": 12,
      "16,50": 12,
      "17,0": 8,
      "17,1": 19,
      "17,2": 33,
      "17,3": 34,
      "17,4": 34,
      "17,5": 34,
      "17,6": 34,
      "17,7": 34,
      "17,8": 34,
      "17,9": 35,
      "17,10": 20,
      "17,11": 9,
      "17,12": 12,
      "17,13": 12,
      "17,14": 12,
      "17,15": 12,
      "17,16": 12,
      "17,17": 12,
      "17,18": 12,
      "17,19": 12,
      "17,20": 12,
      "17,21": 12,
      "17,22": 12,
      "17,23": 12,
      "17,24": 12,
      "17,25": 12,
      "17,26": 13,
      "17,27": 13,
      "17,28": 13,
      "17,29": 13,
      "17,30": 13,
      "17,31": 12,
      "17,32": 12,
      "17,33": 12,
      "17,34": 12,
      "17,35": 12,
      "17,36": 12,
      "17,37": 12,
      "17,38": 12,
      "17,39": 12,
      "17,40": 12,
      "17,41": 12,
      "17,42": 12,
      "17,43": 13,
      "17,44": 12,
      "17,45": 12,
      "17,46": 12,
      "17,47": 12,
      "17,48": 12,
      "17,49": 12,
      "17,50": 12,
      "18,0": 8,
      "18,1": 9,
      "18,2": 36,
      "18,3": 36,
      "18,4": 36,
      "18,5": 36,
      "18,6": 36,
      "18,7": 36,
      "18,8": 22,
      "18,9": 22,
      "18,10": 9,
      "18,11": 9,
      "18,12": 12,
      "18,13": 12,
      "18,14": 12,
      "18,15": 12,
      "18,16": 12,
      "18,17": 12,
      "18,18": 12,
      "18,19": 12,
      "18,20": 12,
      "18,21": 12,
      "18,22": 12,
      "18,23": 12,
      "18,24": 12,
      "18,25": 12,
      "18,26": 13,
      "18,27": 13,
      "18,28": 13,
      "18,29": 13,
      "18,30": 13,
      "18,31": 12,
      "18,32": 12,
      "18,33": 12,
      "18,34": 12,
      "18,35": 12,
      "18,36": 12,
      "18,37": 12,
      "18,38": 12,
      "18,39": 12,
      "18,40": 12,
      "18,41": 12,
      "18,42": 12,
      "18,43": 13,
      "18,44": 12,
      "18,45": 12,
      "18,46": 12,
      "18,47": 12,
      "18,48": 12,
      "18,49": 12,
      "18,50": 12,
      "19,0": 8,
      "19,1": 19,
      "19,2": 27,
      "19,3": 37,
      "19,4": 37,
      "19,5": 37,
      "19,6": 37,
      "19,7": 37,
      "19,8": 37,
      "19,9": 38,
      "19,10": 20,
      "19,11": 12,
      "19,12": 12,
      "19,13": 12,
      "19,14": 12,
      "19,15": 12,
      "19,16": 12,
      "19,17": 12,
      "19,18": 12,
      "19,19": 12,
      "19,20": 12,
      "19,21": 12,
      "19,22": 12,
      "19,23": 12,
      "19,24": 12,
      "19,25": 12,
      "19,26": 13,
      "19,27": 13,
      "19,28": 13,
      "19,29": 13,
      "19,30": 13,
      "19,31": 12,
      "19,32": 12,
      "19,33": 12,
      "19,34": 12,
      "19,35": 12,
      "19,36": 12,
      "19,37": 12,
      "19,38": 12,
      "19,39": 12,
      "19,40": 12,
      "19,41": 12,
      "19,42": 12,
      "19,43": 13,
      "19,44": 12,
      "19,45": 12,
      "19,46": 12,
      "19,47": 12,
      "19,48": 12,
      "19,49": 12,
      "19,50": 12,
      "20,0": 8,
      "20,1": 19,
      "20,2": 30,
      "20,3": 39,
      "20,4": 39,
      "20,5": 39,
      "20,6": 39,
      "20,7": 39,
      "20,8": 39,
      "20,9": 40,
      "20,10": 20,
      "20,11": 12,
      "20,12": 12,
      "20,13": 12,
      "20,14": 12,
      "20,15": 12,
      "20,16": 12,
      "20,17": 12,
      "20,18": 12,
      "20,19": 12,
      "20,20": 12,
      "20,21": 12,
      "20,22": 12,
      "20,23": 12,
      "20,24": 12,
      "20,25": 12,
      "20,26": 13,
      "20,27": 13,
      "20,28": 13,
      "20,29": 13,
      "20,30": 13,
      "20,31": 12,
      "20,32": 12,
      "20,33": 12,
      "20,34": 12,
      "20,35": 12,
      "20,36": 12,
      "20,37": 12,
      "20,38": 12,
      "20,39": 12,
      "20,40": 12,
      "20,41": 12,
      "20,42": 12,
      "20,43": 13,
      "20,44": 12,
      "20,45": 12,
      "20,46": 12,
      "20,47": 12,
      "20,48": 12,
      "20,49": 12,
      "20,50": 12,
      "21,0": 8,
      "21,1": 19,
      "21,2": 33,
      "21,3": 41,
      "21,4": 41,
      "21,5": 41,
      "21,6": 41,
      "21,7": 41,
      "21,8": 41,
      "21,9": 42,
      "21,10": 20,
      "21,11": 12,
      "21,12": 12,
      "21,13": 12,
      "21,14": 12,
      "21,15": 12,
      "21,16": 12,
      "21,17": 12,
      "21,18": 12,
      "21,19": 12,
      "21,20": 12,
      "21,21": 12,
      "21,22": 12,
      "21,23": 12,
      "21,24": 12,
      "21,25": 12,
      "21,26": 13,
      "21,27": 13,
      "21,28": 13,
      "21,29": 13,
      "21,30": 13,
      "21,31": 12,
      "21,32": 12,
      "21,33": 12,
      "21,34": 12,
      "21,35": 12,
      "21,36": 12,
      "21,37": 12,
      "21,38": 12,
      "21,39": 12,
      "21,40": 12,
      "21,41": 12,
      "21,42": 12,
      "21,43": 13,
      "21,44": 12,
      "21,45": 12,
      "21,46": 12,
      "21,47": 12,
      "21,48": 12,
      "21,49": 12,
      "21,50": 12,
      "22,0": 8,
      "22,1": 9,
      "22,2": 43,
      "22,3": 23,
      "22,4": 23,
      "22,5": 11,
      "22,6": 23,
      "22,7": 11,
      "22,8": 23,
      "22,9": 23,
      "22,10": 9,
      "22,11": 12,
      "22,12": 12,
      "22,13": 12,
      "22,14": 12,
      "22,15": 12,
      "22,16": 12,
      "22,17": 12,
      "22,18": 12,
      "22,19": 12,
      "22,20": 12,
      "22,21": 12,
      "22,22": 12,
      "22,23": 12,
      "22,24": 12,
      "22,25": 12,
      "22,26": 13,
      "22,27": 13,
      "22,28": 13,
      "22,29": 13,
      "22,30": 13,
      "22,31": 12,
      "22,32": 12,
      "22,33": 12,
      "22,34": 12,
      "22,35": 12,
      "22,36": 12,
      "22,37": 12,
      "22,38": 12,
      "22,39": 12,
      "22,40": 12,
      "22,41": 12,
      "22,42": 12,
      "22,43": 13,
      "22,44": 12,
      "22,45": 12,
      "22,46": 12,
      "22,47": 12,
      "22,48": 12,
      "22,49": 12,
      "22,50": 12,
      "23,0": 8,
      "23,1": 9,
      "23,2": 9,
      "23,3": 9,
      "23,4": 9,
      "23,5": 11,
      "23,6": 9,
      "23,7": 11,
      "23,8": 9,
      "23,9": 9,
      "23,10": 9,
      "23,11": 12,
      "23,12": 12,
      "23,13": 12,
      "23,14": 12,
      "23,15": 12,
      "23,16": 12,
      "23,17": 12,
      "23,18": 12,
      "23,19": 12,
      "23,20": 12,
      "23,21": 12,
      "23,22": 12,
      "23,23": 12,
      "23,24": 12,
      "23,25": 12,
      "23,26": 13,
      "23,27": 13,
      "23,28": 13,
      "23,29": 13,
      "23,30": 13,
      "23,31": 12,
      "23,32": 12,
      "23,33": 12,
      "23,34": 12,
      "23,35": 12,
      "23,36": 12,
      "23,37": 12,
      "23,38": 12,
      "23,39": 12,
      "23,40": 12,
      "23,41": 12,
      "23,42": 12,
      "23,43": 13,
      "23,44": 12,
      "23,45": 12,
      "23,46": 12,
      "23,47": 12,
      "23,48": 12,
      "23,49": 12,
      "23,50": 12,
      "24,0": 8,
      "24,1": 9,
      "24,2": 13,
      "24,3": 13,
      "24,4": 13,
      "24,5": 13,
      "24,6": 13,
      "24,7": 11,
      "24,8": 9,
      "24,9": 9,
      "24,10": 9,
      "24,11": 12,
      "24,12": 12,
      "24,13": 12,
      "24,14": 12,
      "24,15": 12,
      "24,16": 12,
      "24,17": 12,
      "24,18": 12,
      "24,19": 12,
      "24,20": 12,
      "24,21": 12,
      "24,22": 12,
      "24,23": 12,
      "24,24": 12,
      "24,25": 12,
      "24,26": 13,
      "24,27": 13,
      "24,28": 13,
      "24,29": 13,
      "24,30": 13,
      "24,31": 12,
      "24,32": 12,
      "24,33": 12,
      "24,34": 12,
      "24,35": 12,
      "24,36": 12,
      "24,37": 12,
      "24,38": 12,
      "24,39": 12,
      "24,40": 12,
      "24,41": 12,
      "24,42": 12,
      "24,43": 13,
      "24,44": 12,
      "24,45": 12,
      "24,46": 12,
      "24,47": 12,
      "24,48": 12,
      "24,49": 12,
      "24,50": 12,
      "25,0": 8,
      "25,1": 9,
      "25,2": 9,
      "25,3": 9,
      "25,4": 9,
      "25,5": 11,
      "25,6": 9,
      "25,7": 11,
      "25,8": 9,
      "25,9": 9,
      "25,10": 9,
      "25,11": 12,
      "25,12": 12,
      "25,13": 12,
      "25,14": 12,
      "25,15": 12,
      "25,16": 12,
      "25,17": 12,
      "25,18": 12,
      "25,19": 12,
      "25,20": 12,
      "25,21": 12,
      "25,22": 12,
      "25,23": 12,
      "25,24": 12,
      "25,25": 12,
      "25,26": 13,
      "25,27": 13,
      "25,28": 13,
      "25,29": 13,
      "25,30": 13,
      "25,31": 12,
      "25,32": 12,
      "25,33": 12,
      "25,34": 12,
      "25,35": 12,
      "25,36": 12,
      "25,37": 12,
      "25,38": 12,
      "25,39": 12,
      "25,40": 12,
      "25,41": 12,
      "25,42": 12,
      "25,43": 13,
      "25,44": 12,
      "25,45": 12,
      "25,46": 12,
      "25,47": 12,
      "25,48": 12,
      "25,49": 12,
      "25,50": 12,
      "26,0": 8,
      "26,1": 9,
      "26,2": 44,
      "26,3": 44,
      "26,4": 44,
      "26,5": 44,
      "26,6": 44,
      "26,7": 45,
      "26,8": 9,
      "26,9": 9,
      "26,10": 9,
      "26,11": 12,
      "26,12": 12,
      "26,13": 12,
      "26,14": 12,
      "26,15": 12,
      "26,16": 12,
      "26,17": 12,
      "26,18": 12,
      "26,19": 12,
      "26,20": 12,
      "26,21": 12,
      "26,22": 12,
      "26,23": 12,
      "26,24": 12,
      "26,25": 12,
      "26,26": 13,
      "26,27": 13,
      "26,28": 13,
      "26,29": 13,
      "26,30": 13,
      "26,31": 12,
      "26,32": 12,
      "26,33": 12,
      "26,34": 12,
      "26,35": 12,
      "26,36": 12,
      "26,37": 12,
      "26,38": 12,
      "26,39": 12,
      "26,40": 12,
      "26,41": 12,
      "26,42": 12,
      "26,43": 13,
      "26,44": 12,
      "26,45": 12,
      "26,46": 12,
      "26,47": 12,
      "26,48": 12,
      "26,49": 12,
      "26,50": 12,
      "27,0": 8,
      "27,1": 9,
      "27,2": 46,
      "27,3": 46,
      "27,4": 46,
      "27,5": 45,
      "27,6": 46,
      "27,7": 45,
      "27,8": 9,
      "27,9": 9,
      "27,10": 9,
      "27,11": 12,
      "27,12": 12,
      "27,13": 12,
      "27,14": 12,
      "27,15": 12,
      "27,16": 12,
      "27,17": 12,
      "27,18": 12,
      "27,19": 12,
      "27,20": 12,
      "27,21": 12,
      "27,22": 12,
      "27,23": 12,
      "27,24": 12,
      "27,25": 12,
      "27,26": 13,
      "27,27": 13,
      "27,28": 13,
      "27,29": 13,
      "27,30": 13,
      "27,31": 12,
      "27,32": 12,
      "27,33": 12,
      "27,34": 12,
      "27,35": 12,
      "27,36": 12,
      "27,37": 12,
      "27,38": 12,
      "27,39": 12,
      "27,40": 12,
      "27,41": 12,
      "27,42": 12,
      "27,43": 13,
      "27,44": 12,
      "27,45": 12,
      "27,46": 12,
      "27,47": 12,
      "27,48": 12,
      "27,49": 12,
      "27,50": 12,
      "28,0": 8,
      "28,1": 9,
      "28,2": 47,
      "28,3": 46,
      "28,4": 46,
      "28,5": 45,
      "28,6": 46,
      "28,7": 45,
      "28,8": 9,
      "28,9": 9,
      "28,10": 9,
      "28,11": 12,
      "28,12": 12,
      "28,13": 12,
      "28,14": 12,
      "28,15": 12,
      "28,16": 12,
      "28,17": 12,
      "28,18": 12,
      "28,19": 12,
      "28,20": 12,
      "28,21": 12,
      "28,22": 12,
      "28,23": 12,
      "28,24": 12,
      "28,25": 12,
      "28,26": 13,
      "28,27": 13,
      "28,28": 13,
      "28,29": 13,
      "28,30": 13,
      "28,31": 12,
      "28,32": 12,
      "28,33": 12,
      "28,34": 12,
      "28,35": 12,
      "28,36": 12,
      "28,37": 12,
      "28,38": 12,
      "28,39": 12,
      "28,40": 12,
      "28,41": 12,
      "28,42": 12,
      "28,43": 13,
      "28,44": 12,
      "28,45": 12,
      "28,46": 12,
      "28,47": 12,
      "28,48": 12,
      "28,49": 12,
      "28,50": 12,
      "29,0": 8,
      "29,1": 9,
      "29,2": 46,
      "29,3": 46,
      "29,4": 46,
      "29,5": 45,
      "29,6": 46,
      "29,7": 45,
      "29,8": 9,
      "29,9": 9,
      "29,10": 9,
      "29,11": 12,
      "29,12": 12,
      "29,13": 12,
      "29,14": 12,
      "29,15": 12,
      "29,16": 12,
      "29,17": 12,
      "29,18": 12,
      "29,19": 12,
      "29,20": 12,
      "29,21": 12,
      "29,22": 12,
      "29,23": 12,
      "29,24": 12,
      "29,25": 12,
      "29,26": 13,
      "29,27": 13,
      "29,28": 13,
      "29,29": 13,
      "29,30": 13,
      "29,31": 12,
      "29,32": 12,
      "29,33": 12,
      "29,34": 12,
      "29,35": 12,
      "29,36": 12,
      "29,37": 12,
      "29,38": 12,
      "29,39": 12,
      "29,40": 12,
      "29,41": 12,
      "29,42": 12,
      "29,43": 13,
      "29,44": 12,
      "29,45": 12,
      "29,46": 12,
      "29,47": 12,
      "29,48": 12,
      "29,49": 12,
      "29,50": 12,
      "30,0": 8,
      "30,1": 9,
      "30,2": 48,
      "30,3": 46,
      "30,4": 46,
      "30,5": 45,
      "30,6": 46,
      "30,7": 45,
      "30,8": 9,
      "30,9": 9,
      "30,10": 9,
      "30,11": 12,
      "30,12": 12,
      "30,13": 12,
      "30,14": 12,
      "30,15": 12,
      "30,16": 12,
      "30,17": 12,
      "30,18": 12,
      "30,19": 12,
      "30,20": 12,
      "30,21": 12,
      "30,22": 12,
      "30,23": 12,
      "30,24": 12,
      "30,25": 12,
      "30,26": 13,
      "30,27": 13,
      "30,28": 13,
      "30,29": 13,
      "30,30": 13,
      "30,31": 12,
      "30,32": 12,
      "30,33": 12,
      "30,34": 12,
      "30,35": 12,
      "30,36": 12,
      "30,37": 12,
      "30,38": 12,
      "30,39": 12,
      "30,40": 12,
      "30,41": 12,
      "30,42": 12,
      "30,43": 13,
      "30,44": 12,
      "30,45": 12,
      "30,46": 12,
      "30,47": 12,
      "30,48": 12,
      "30,49": 12,
      "30,50": 12,
      "31,0": 8,
      "31,1": 9,
      "31,2": 9,
      "31,3": 9,
      "31,4": 9,
      "31,5": 11,
      "31,6": 9,
      "31,7": 11,
      "31,8": 9,
      "31,9": 9,
      "31,10": 9,
      "31,11": 12,
      "31,12": 12,
      "31,13": 12,
      "31,14": 12,
      "31,15": 12,
      "31,16": 12,
      "31,17": 12,
      "31,18": 12,
      "31,19": 12,
      "31,20": 12,
      "31,21": 12,
      "31,22": 12,
      "31,23": 12,
      "31,24": 12,
      "31,25": 12,
      "31,26": 13,
      "31,27": 13,
      "31,28": 13,
      "31,29": 13,
      "31,30": 13,
      "31,31": 12,
      "31,32": 12,
      "31,33": 12,
      "31,34": 12,
      "31,35": 12,
      "31,36": 12,
      "31,37": 12,
      "31,38": 12,
      "31,39": 12,
      "31,40": 12,
      "31,41": 12,
      "31,42": 12,
      "31,43": 13,
      "31,44": 12,
      "31,45": 12,
      "31,46": 12,
      "31,47": 12,
      "31,48": 12,
      "31,49": 12,
      "31,50": 12,
      "32,0": 8,
      "32,1": 9,
      "32,2": 9,
      "32,3": 9,
      "32,4": 9,
      "32,5": 11,
      "32,6": 9,
      "32,7": 11,
      "32,8": 9,
      "32,9": 9,
      "32,10": 9,
      "32,11": 12,
      "32,12": 12,
      "32,13": 12,
      "32,14": 12,
      "32,15": 12,
      "32,16": 12,
      "32,17": 12,
      "32,18": 12,
      "32,19": 12,
      "32,20": 12,
      "32,21": 12,
      "32,22": 12,
      "32,23": 12,
      "32,24": 12,
      "32,25": 12,
      "32,26": 13,
      "32,27": 13,
      "32,28": 13,
      "32,29": 13,
      "32,30": 13,
      "32,31": 12,
      "32,32": 12,
      "32,33": 12,
      "32,34": 12,
      "32,35": 12,
      "32,36": 12,
      "32,37": 12,
      "32,38": 12,
      "32,39": 12,
      "32,40": 12,
      "32,41": 12,
      "32,42": 12,
      "32,43": 13,
      "32,44": 12,
      "32,45": 12,
      "32,46": 12,
      "32,47": 12,
      "32,48": 12,
      "32,49": 12,
      "32,50": 12,
      "33,0": 8,
      "33,1": 9,
      "33,2": 9,
      "33,3": 9,
      "33,4": 9,
      "33,5": 11,
      "33,6": 9,
      "33,7": 11,
      "33,8": 9,
      "33,9": 9,
      "33,10": 9,
      "33,11": 12,
      "33,12": 12,
      "33,13": 12,
      "33,14": 12,
      "33,15": 12,
      "33,16": 12,
      "33,17": 12,
      "33,18": 12,
      "33,19": 12,
      "33,20": 12,
      "33,21": 12,
      "33,22": 12,
      "33,23": 12,
      "33,24": 12,
      "33,25": 12,
      "33,26": 13,
      "33,27": 13,
      "33,28": 13,
      "33,29": 13,
      "33,30": 13,
      "33,31": 12,
      "33,32": 12,
      "33,33": 12,
      "33,34": 12,
      "33,35": 12,
      "33,36": 12,
      "33,37": 12,
      "33,38": 12,
      "33,39": 12,
      "33,40": 12,
      "33,41": 12,
      "33,42": 12,
      "33,43": 13,
      "33,44": 12,
      "33,45": 12,
      "33,46": 12,
      "33,47": 12,
      "33,48": 12,
      "33,49": 12,
      "33,50": 12,
      "34,0": 8,
      "34,1": 9,
      "34,2": 9,
      "34,3": 9,
      "34,4": 9,
      "34,5": 11,
      "34,6": 9,
      "34,7": 11,
      "34,8": 9,
      "34,9": 9,
      "34,10": 9,
      "34,11": 12,
      "34,12": 12,
      "34,13": 12,
      "34,14": 12,
      "34,15": 12,
      "34,16": 12,
      "34,17": 12,
      "34,18": 12,
      "34,19": 12,
      "34,20": 12,
      "34,21": 12,
      "34,22": 12,
      "34,23": 12,
      "34,24": 12,
      "34,25": 12,
      "34,26": 13,
      "34,27": 13,
      "34,28": 13,
      "34,29": 13,
      "34,30": 13,
      "34,31": 12,
      "34,32": 12,
      "34,33": 12,
      "34,34": 12,
      "34,35": 12,
      "34,36": 12,
      "34,37": 12,
      "34,38": 12,
      "34,39": 12,
      "34,40": 12,
      "34,41": 12,
      "34,42": 12,
      "34,43": 13,
      "34,44": 12,
      "34,45": 12,
      "34,46": 12,
      "34,47": 12,
      "34,48": 12,
      "34,49": 12,
      "34,50": 12,
      "35,0": 8,
      "35,1": 9,
      "35,2": 9,
      "35,3": 9,
      "35,4": 9,
      "35,5": 11,
      "35,6": 9,
      "35,7": 11,
      "35,8": 9,
      "35,9": 9,
      "35,10": 9,
      "35,11": 12,
      "35,12": 12,
      "35,13": 12,
      "35,14": 12,
      "35,15": 12,
      "35,16": 12,
      "35,17": 12,
      "35,18": 12,
      "35,19": 12,
      "35,20": 12,
      "35,21": 12,
      "35,22": 12,
      "35,23": 12,
      "35,24": 12,
      "35,25": 12,
      "35,26": 13,
      "35,27": 13,
      "35,28": 13,
      "35,29": 13,
      "35,30": 13,
      "35,31": 12,
      "35,32": 12,
      "35,33": 12,
      "35,34": 12,
      "35,35": 12,
      "35,36": 12,
      "35,37": 12,
      "35,38": 12,
      "35,39": 12,
      "35,40": 12,
      "35,41": 12,
      "35,42": 12,
      "35,43": 13,
      "35,44": 12,
      "35,45": 12,
      "35,46": 12,
      "35,47": 12,
      "35,48": 12,
      "35,49": 12,
      "35,50": 12,
      "36,0": 8,
      "36,1": 9,
      "36,2": 9,
      "36,3": 9,
      "36,4": 9,
      "36,5": 11,
      "36,6": 9,
      "36,7": 11,
      "36,8": 9,
      "36,9": 9,
      "36,10": 9,
      "36,11": 12,
      "36,12": 12,
      "36,13": 12,
      "36,14": 12,
      "36,15": 12,
      "36,16": 12,
      "36,17": 12,
      "36,18": 12,
      "36,19": 12,
      "36,20": 12,
      "36,21": 12,
      "36,22": 12,
      "36,23": 12,
      "36,24": 12,
      "36,25": 12,
      "36,26": 13,
      "36,27": 13,
      "36,28": 13,
      "36,29": 13,
      "36,30": 13,
      "36,31": 12,
      "36,32": 12,
      "36,33": 12,
      "36,34": 12,
      "36,35": 12,
      "36,36": 12,
      "36,37": 12,
      "36,38": 12,
      "36,39": 12,
      "36,40": 12,
      "36,41": 12,
      "36,42": 12,
      "36,43": 13,
      "36,44": 12,
      "36,45": 12,
      "36,46": 12,
      "36,47": 12,
      "36,48": 12,
      "36,49": 12,
      "36,50": 12,
      "37,0": 8,
      "37,1": 11,
      "37,2": 11,
      "37,3": 11,
      "37,4": 11,
      "37,5": 11,
      "37,6": 11,
      "37,7": 11,
      "37,8": 11,
      "37,9": 11,
      "37,10": 11,
      "37,11": 13,
      "37,12": 12,
      "37,13": 12,
      "37,14": 12,
      "37,15": 12,
      "37,16": 12,
      "37,17": 12,
      "37,18": 12,
      "37,19": 12,
      "37,20": 12,
      "37,21": 12,
      "37,22": 12,
      "37,23": 12,
      "37,24": 12,
      "37,25": 12,
      "37,26": 13,
      "37,27": 13,
      "37,28": 13,
      "37,29": 13,
      "37,30": 13,
      "37,31": 12,
      "37,32": 12,
      "37,33": 12,
      "37,34": 12,
      "37,35": 12,
      "37,36": 12,
      "37,37": 12,
      "37,38": 12,
      "37,39": 12,
      "37,40": 12,
      "37,41": 12,
      "37,42": 12,
      "37,43": 13,
      "37,44": 12,
      "37,45": 12,
      "37,46": 12,
      "37,47": 12,
      "37,48": 12,
      "37,49": 12,
      "37,50": 13,
      "38,0": 8,
      "38,1": 11,
      "38,2": 11,
      "38,3": 11,
      "38,4": 11,
      "38,5": 11,
      "38,6": 11,
      "38,7": 11,
      "38,8": 11,
      "38,9": 11,
      "38,10": 11,
      "38,11": 13,
      "38,12": 13,
      "38,13": 13,
      "38,14": 13,
      "38,15": 13,
      "38,16": 13,
      "38,17": 13,
      "38,18": 13,
      "38,19": 13,
      "38,20": 13,
      "38,21": 13,
      "38,22": 13,
      "38,23": 13,
      "38,24": 13,
      "38,25": 13,
      "38,26": 13,
      "38,27": 13,
      "38,28": 13,
      "38,29": 13,
      "38,30": 13,
      "38,31": 13,
      "38,32": 13,
      "38,33": 13,
      "38,34": 13,
      "38,35": 13,
      "38,36": 13,
      "38,37": 13,
      "38,38": 13,
      "38,39": 13,
      "38,40": 13,
      "38,41": 13,
      "38,42": 13,
      "38,43": 13,
      "38,44": 13,
      "38,45": 13,
      "38,46": 13,
      "38,47": 13,
      "38,48": 13,
      "38,49": 13,
      "38,50": 13,
      "39,0": 8,
      "39,1": 11,
      "39,2": 11,
      "39,3": 11,
      "39,4": 11,
      "39,5": 11,
      "39,6": 11,
      "39,7": 11,
      "39,8": 11,
      "39,9": 11,
      "39,10": 11,
      "39,11": 13,
      "39,12": 13,
      "39,13": 13,
      "39,14": 13,
      "39,15": 13,
      "39,16": 13,
      "39,17": 13,
      "39,18": 13,
      "39,19": 13,
      "39,20": 13,
      "39,21": 13,
      "39,22": 13,
      "39,23": 13,
      "39,24": 13,
      "39,25": 13,
      "39,26": 13,
      "39,27": 13,
      "39,28": 13,
      "39,29": 13,
      "39,30": 13,
      "39,31": 13,
      "39,32": 13,
      "39,33": 13,
      "39,34": 13,
      "39,35": 13,
      "39,36": 13,
      "39,37": 13,
      "39,38": 13,
      "39,39": 13,
      "39,40": 13,
      "39,41": 13,
      "39,42": 13,
      "39,43": 13,
      "39,44": 13,
      "39,45": 13,
      "39,46": 13,
      "39,47": 13,
      "39,48": 13,
      "39,49": 13,
      "39,50": 13
    },
    "RowStyles": {
      "1": 49,
      "2": 49,
      "3": 49,
      "4": 49
    },
    "SheetStyle": {
      "FontFamily": 1
    }
  },
  "Spans": [
    "22,2,1,7",
    "6,12,32,38",
    "1,4,4,18",
    "6,5,3,5",
    "10,5,3,5",
    "1,1,4,3",
    "6,2,3,3",
    "10,2,3,3",
    "2,40,2,10",
    "15,3,3,6",
    "19,3,3,6",
    "24,2,1,5",
    "26,2,1,5"
  ],
  "PageInfo": {
    "$type": "Forguncy.Model.Pages.MasterPage, Forguncy",
    "Name": "BentoMasterPage"
  },
  "PrintInfo": {
    "Margin": {},
    "PaperSize": {}
  },
  "CustomNames": [
    {
      "Name": "ManageMenu",
      "Formula": "BentoMasterPage!$D$16"
    }
  ]
}